%!PS-Adobe-3.0 EPSF-3.0
%%Title: pca.eps
%%Creator: Matplotlib v3.4.1, https://matplotlib.org/
%%CreationDate: Tue May 11 20:23:32 2021
%%Orientation: portrait
%%BoundingBox: 54 216 558 576
%%HiResBoundingBox: 54.000000 216.000000 558.000000 576.000000
%%EndComments
%%BeginProlog
/mpldict 11 dict def
mpldict begin
/d { bind def } bind def
/m { moveto } d
/l { lineto } d
/r { rlineto } d
/c { curveto } d
/cl { closepath } d
/ce { closepath eofill } d
/box {
      m
      1 index 0 r
      0 exch r
      neg 0 r
      cl
    } d
/clipbox {
      box
      clip
      newpath
    } d
/sc { setcachedevice } d
%!PS-Adobe-3.0 Resource-Font
%%Creator: Converted from TrueType to Type 3 by Matplotlib.
10 dict begin
/FontName /ArialMT def
/PaintType 0 def
/FontMatrix [0.00048828125 0 0 0.00048828125 0 0] def
/FontBBox [-1361 -665 4096 2060] def
/FontType 3 def
/Encoding [/space /period /zero /one /two /five /seven /eight /nine /A /C /E /N /P /a /b /c /d /e /f /i /l /m /n /o /p /r /s /t /u /v /x] def
/CharStrings 33 dict dup begin
/.notdef 0 def
/space{569 0 0 0 0 0 sc
ce} d
/period{569 0 186 0 391 205 sc
186 0 m
186 205 l
391 205 l
391 0 l
186 0 l

ce} d
/zero{1139 0 85 -25 1041 1472 sc
85 723 m
85 896 103 1036 138 1141 c
174 1247 227 1329 297 1386 c
368 1443 456 1472 563 1472 c
642 1472 711 1456 770 1424 c
829 1393 878 1347 917 1287 c
956 1228 986 1155 1008 1069 c
1030 984 1041 868 1041 723 c
1041 551 1023 412 988 306 c
953 201 900 119 829 61 c
759 4 670 -25 563 -25 c
422 -25 311 26 230 127 c
133 249 85 448 85 723 c

270 723 m
270 482 298 322 354 242 c
411 163 480 123 563 123 c
646 123 715 163 771 243 c
828 323 856 483 856 723 c
856 964 828 1125 771 1204 c
715 1283 645 1323 561 1323 c
478 1323 412 1288 363 1218 c
301 1129 270 964 270 723 c

ce} d
/one{1139 0 223 0 763 1472 sc
763 0 m
583 0 l
583 1147 l
540 1106 483 1064 412 1023 c
342 982 279 951 223 930 c
223 1104 l
324 1151 412 1209 487 1276 c
562 1343 616 1409 647 1472 c
763 1472 l
763 0 l

ce} d
/two{1139 0 60 0 1031 1472 sc
1031 173 m
1031 0 l
62 0 l
61 43 68 85 83 125 c
108 191 147 256 201 320 c
256 384 334 458 437 542 c
596 673 704 776 760 852 c
816 929 844 1001 844 1069 c
844 1140 818 1200 767 1249 c
716 1298 650 1323 568 1323 c
481 1323 412 1297 360 1245 c
308 1193 282 1121 281 1029 c
96 1048 l
109 1186 156 1291 239 1363 c
322 1436 433 1472 572 1472 c
713 1472 824 1433 906 1355 c
988 1277 1029 1180 1029 1065 c
1029 1006 1017 949 993 892 c
969 835 929 776 873 713 c
818 650 725 564 596 455 c
488 364 419 303 388 270 c
357 238 332 206 312 173 c
1031 173 l

ce} d
/five{1139 0 85 -25 1057 1446 sc
85 384 m
274 400 l
288 308 320 239 371 192 c
422 146 484 123 556 123 c
643 123 716 156 776 221 c
836 286 866 373 866 481 c
866 584 837 665 779 724 c
722 783 646 813 553 813 c
495 813 443 800 396 773 c
349 747 313 713 286 671 c
117 693 l
259 1446 l
988 1446 l
988 1274 l
403 1274 l
324 880 l
412 941 504 972 601 972 c
729 972 837 928 925 839 c
1013 750 1057 636 1057 497 c
1057 364 1018 250 941 153 c
847 34 719 -25 556 -25 c
423 -25 314 12 229 87 c
145 162 97 261 85 384 c

ce} d
/seven{1139 0 97 0 1046 1447 sc
97 1274 m
97 1447 l
1046 1447 l
1046 1307 l
953 1208 860 1076 768 911 c
677 746 606 577 556 403 c
520 280 497 146 487 0 c
302 0 l
304 115 327 255 370 418 c
413 581 475 739 556 890 c
637 1042 724 1170 815 1274 c
97 1274 l

ce} d
/eight{1139 0 83 -25 1049 1472 sc
362 795 m
287 822 232 861 196 912 c
160 963 142 1023 142 1094 c
142 1201 180 1290 257 1363 c
334 1436 436 1472 563 1472 c
691 1472 794 1435 872 1360 c
950 1286 989 1196 989 1089 c
989 1021 971 962 935 911 c
900 861 846 822 773 795 c
863 766 931 718 978 653 c
1025 588 1049 510 1049 419 c
1049 294 1005 188 916 103 c
827 18 711 -25 566 -25 c
421 -25 305 18 216 103 c
127 189 83 296 83 424 c
83 519 107 599 155 663 c
204 728 273 772 362 795 c

326 1100 m
326 1031 348 974 393 930 c
438 886 496 864 567 864 c
636 864 693 886 737 929 c
782 973 804 1027 804 1090 c
804 1156 781 1211 735 1256 c
690 1301 633 1324 565 1324 c
496 1324 439 1302 394 1258 c
349 1214 326 1161 326 1100 c

268 423 m
268 372 280 322 304 274 c
329 226 365 189 413 162 c
461 136 513 123 568 123 c
654 123 725 151 781 206 c
837 261 865 332 865 417 c
865 504 836 575 778 632 c
721 689 649 717 562 717 c
477 717 407 689 351 633 c
296 577 268 507 268 423 c

ce} d
/nine{1139 0 85 -25 1049 1472 sc
112 339 m
285 355 l
300 274 328 215 369 178 c
410 141 463 123 528 123 c
583 123 632 136 673 161 c
715 186 749 220 776 262 c
803 305 825 362 843 434 c
861 506 870 579 870 654 c
870 662 870 674 869 690 c
833 633 784 586 721 550 c
659 515 592 497 519 497 c
398 497 295 541 211 629 c
127 717 85 833 85 977 c
85 1126 129 1245 216 1336 c
304 1427 414 1472 546 1472 c
641 1472 728 1446 807 1395 c
886 1344 946 1270 987 1175 c
1028 1080 1049 943 1049 763 c
1049 576 1029 426 988 315 c
947 204 887 120 806 62 c
726 4 632 -25 524 -25 c
409 -25 316 7 243 70 c
170 134 127 224 112 339 c

849 986 m
849 1089 821 1171 766 1232 c
711 1293 645 1323 568 1323 c
488 1323 418 1290 359 1225 c
300 1160 270 1075 270 971 c
270 878 298 802 354 743 c
411 685 480 656 563 656 c
646 656 715 685 768 743 c
822 802 849 883 849 986 c

ce} d
/A{1366 0 -3 0 1369 1466 sc
-3 0 m
560 1466 l
769 1466 l
1369 0 l
1148 0 l
977 444 l
364 444 l
203 0 l
-3 0 l

420 602 m
917 602 l
764 1008 l
717 1131 683 1233 660 1312 c
641 1218 615 1125 581 1032 c
420 602 l

ce} d
/C{1479 0 102 -25 1398 1491 sc
1204 514 m
1398 465 l
1357 306 1284 184 1178 100 c
1073 17 944 -25 791 -25 c
633 -25 504 7 405 71 c
306 136 231 229 179 351 c
128 473 102 604 102 744 c
102 897 131 1030 189 1143 c
248 1257 331 1343 438 1402 c
546 1461 665 1491 794 1491 c
941 1491 1064 1454 1164 1379 c
1264 1304 1334 1199 1373 1064 c
1182 1019 l
1148 1126 1099 1203 1034 1252 c
969 1301 888 1325 790 1325 c
677 1325 583 1298 507 1244 c
432 1190 379 1117 348 1026 c
317 935 302 842 302 745 c
302 620 320 511 356 418 c
393 325 449 256 526 210 c
603 164 686 141 775 141 c
884 141 976 172 1051 235 c
1126 298 1177 391 1204 514 c

ce} d
/E{1366 0 162 0 1256 1466 sc
162 0 m
162 1466 l
1222 1466 l
1222 1293 l
356 1293 l
356 844 l
1167 844 l
1167 672 l
356 672 l
356 173 l
1256 173 l
1256 0 l
162 0 l

ce} d
/N{1479 0 156 0 1311 1466 sc
156 0 m
156 1466 l
355 1466 l
1125 315 l
1125 1466 l
1311 1466 l
1311 0 l
1112 0 l
342 1152 l
342 0 l
156 0 l

ce} d
/P{1366 0 158 0 1277 1466 sc
158 0 m
158 1466 l
711 1466 l
808 1466 883 1461 934 1452 c
1006 1440 1066 1417 1115 1383 c
1164 1350 1203 1303 1232 1242 c
1262 1181 1277 1115 1277 1042 c
1277 917 1237 812 1158 725 c
1079 639 935 596 728 596 c
352 596 l
352 0 l
158 0 l

352 769 m
731 769 l
856 769 945 792 998 839 c
1051 886 1077 951 1077 1036 c
1077 1097 1061 1150 1030 1193 c
999 1237 959 1266 908 1280 c
875 1289 815 1293 727 1293 c
352 1293 l
352 769 l

ce} d
/a{1139 0 74 -24 1052 1086 sc
828 131 m
761 74 697 34 635 11 c
574 -12 508 -24 437 -24 c
320 -24 231 4 168 61 c
105 118 74 191 74 280 c
74 332 86 379 109 422 c
133 465 164 500 202 526 c
241 552 284 572 332 585 c
367 594 421 603 492 612 c
637 629 744 650 813 674 c
814 699 814 714 814 721 c
814 794 797 846 763 876 c
717 917 649 937 558 937 c
473 937 411 922 370 892 c
330 863 300 810 281 735 c
105 759 l
121 834 147 895 184 941 c
221 988 274 1023 343 1048 c
412 1073 493 1086 584 1086 c
675 1086 748 1075 805 1054 c
862 1033 903 1006 930 973 c
957 941 975 900 986 851 c
992 820 995 765 995 685 c
995 445 l
995 278 999 172 1006 127 c
1014 83 1029 41 1052 0 c
864 0 l
845 37 833 81 828 131 c

813 533 m
748 506 650 484 519 465 c
445 454 393 442 362 429 c
331 416 308 396 291 370 c
274 345 266 316 266 285 c
266 237 284 197 320 165 c
357 133 410 117 480 117 c
549 117 611 132 665 162 c
719 193 759 234 784 287 c
803 328 813 388 813 467 c
813 533 l

ce} d
/b{1139 0 134 -24 1055 1466 sc
301 0 m
134 0 l
134 1466 l
314 1466 l
314 943 l
390 1038 487 1086 605 1086 c
670 1086 732 1073 790 1046 c
849 1020 897 983 934 935 c
972 888 1002 830 1023 763 c
1044 696 1055 624 1055 547 c
1055 365 1010 224 920 125 c
830 26 722 -24 596 -24 c
471 -24 372 28 301 133 c
301 0 l

299 539 m
299 412 316 320 351 263 c
408 170 484 124 581 124 c
660 124 728 158 785 226 c
842 295 871 397 871 532 c
871 671 843 773 788 839 c
733 905 667 938 589 938 c
510 938 442 904 385 835 c
328 767 299 668 299 539 c

ce} d
/c{1024 0 80 -24 1005 1086 sc
828 389 m
1005 366 l
986 244 936 148 856 79 c
777 10 679 -24 563 -24 c
418 -24 301 23 212 118 c
124 213 80 350 80 527 c
80 642 99 742 137 828 c
175 914 233 978 310 1021 c
388 1064 473 1086 564 1086 c
679 1086 774 1057 847 998 c
920 940 967 857 988 750 c
813 723 l
796 794 767 848 724 884 c
682 920 631 938 571 938 c
480 938 407 905 350 840 c
293 775 265 673 265 532 c
265 389 292 286 347 221 c
402 156 473 124 561 124 c
632 124 691 146 738 189 c
785 232 815 299 828 389 c

ce} d
/d{1139 0 70 -24 991 1466 sc
824 0 m
824 134 l
757 29 658 -24 527 -24 c
442 -24 364 -1 293 46 c
222 93 167 158 128 241 c
89 325 70 421 70 530 c
70 636 88 732 123 818 c
158 905 211 971 282 1017 c
353 1063 432 1086 519 1086 c
583 1086 640 1072 690 1045 c
740 1018 781 983 812 940 c
812 1466 l
991 1466 l
991 0 l
824 0 l

255 530 m
255 394 284 292 341 225 c
398 158 466 124 544 124 c
623 124 689 156 744 220 c
799 285 827 383 827 515 c
827 660 799 767 743 835 c
687 903 618 937 536 937 c
456 937 389 904 335 839 c
282 774 255 671 255 530 c

ce} d
/e{1139 0 75 -24 1054 1086 sc
862 342 m
1048 319 l
1019 210 964 126 885 66 c
806 6 704 -24 581 -24 c
426 -24 302 24 211 119 c
120 215 75 349 75 522 c
75 701 121 839 213 938 c
305 1037 424 1086 571 1086 c
713 1086 829 1038 919 941 c
1009 844 1054 708 1054 533 c
1054 522 1054 506 1053 485 c
261 485 l
268 368 301 279 360 217 c
419 155 493 124 582 124 c
648 124 704 141 751 176 c
798 211 835 266 862 342 c

271 633 m
864 633 l
856 722 833 789 796 834 c
739 903 664 938 573 938 c
490 938 421 910 364 855 c
308 800 277 726 271 633 c

ce} d
/f{569 0 19 0 640 1491 sc
178 0 m
178 922 l
19 922 l
19 1062 l
178 1062 l
178 1175 l
178 1246 184 1299 197 1334 c
214 1381 245 1418 288 1447 c
332 1476 393 1491 472 1491 c
523 1491 579 1485 640 1473 c
613 1316 l
576 1323 540 1326 507 1326 c
452 1326 414 1314 391 1291 c
368 1268 357 1224 357 1160 c
357 1062 l
564 1062 l
564 922 l
357 922 l
357 0 l
178 0 l

ce} d
/i{455 0 136 0 316 1466 sc
136 1259 m
136 1466 l
316 1466 l
316 1259 l
136 1259 l

136 0 m
136 1062 l
316 1062 l
316 0 l
136 0 l

ce} d
/l{455 0 131 0 311 1466 sc
131 0 m
131 1466 l
311 1466 l
311 0 l
131 0 l

ce} d
/m{1706 0 135 0 1574 1086 sc
135 0 m
135 1062 l
296 1062 l
296 913 l
329 965 374 1007 429 1038 c
484 1070 547 1086 618 1086 c
697 1086 761 1070 811 1037 c
862 1004 897 959 918 900 c
1002 1024 1111 1086 1246 1086 c
1351 1086 1432 1057 1489 998 c
1546 940 1574 850 1574 729 c
1574 0 l
1395 0 l
1395 669 l
1395 741 1389 793 1377 824 c
1366 856 1345 882 1314 901 c
1283 920 1247 930 1206 930 c
1131 930 1069 905 1020 855 c
971 806 946 726 946 617 c
946 0 l
766 0 l
766 690 l
766 770 751 830 722 870 c
693 910 645 930 578 930 c
527 930 480 917 437 890 c
394 863 363 824 344 773 c
325 722 315 648 315 551 c
315 0 l
135 0 l

ce} d
/n{1139 0 135 0 998 1086 sc
135 0 m
135 1062 l
297 1062 l
297 911 l
375 1028 488 1086 635 1086 c
699 1086 758 1074 811 1051 c
865 1028 905 998 932 961 c
959 924 977 879 988 828 c
995 795 998 736 998 653 c
998 0 l
818 0 l
818 646 l
818 719 811 774 797 810 c
783 847 758 876 722 897 c
687 919 645 930 597 930 c
520 930 454 906 398 857 c
343 808 315 716 315 580 c
315 0 l
135 0 l

ce} d
/o{1139 0 68 -24 1063 1086 sc
68 531 m
68 728 123 873 232 968 c
323 1047 435 1086 566 1086 c
712 1086 831 1038 924 942 c
1017 847 1063 715 1063 546 c
1063 409 1042 302 1001 223 c
960 145 901 84 822 41 c
744 -2 659 -24 566 -24 c
417 -24 297 24 205 119 c
114 214 68 352 68 531 c

253 531 m
253 395 283 293 342 225 c
401 158 476 124 566 124 c
655 124 730 158 789 226 c
848 294 878 398 878 537 c
878 668 848 768 788 835 c
729 903 655 937 566 937 c
476 937 401 903 342 836 c
283 769 253 667 253 531 c

ce} d
/p{1139 0 135 -407 1057 1086 sc
135 -407 m
135 1062 l
299 1062 l
299 924 l
338 978 381 1018 430 1045 c
479 1072 538 1086 607 1086 c
698 1086 778 1063 847 1016 c
916 969 969 903 1004 818 c
1039 733 1057 640 1057 539 c
1057 430 1037 332 998 245 c
959 158 903 92 828 45 c
754 -1 676 -24 594 -24 c
534 -24 480 -11 432 14 c
385 39 346 71 315 110 c
315 -407 l
135 -407 l

298 525 m
298 388 326 287 381 222 c
436 157 503 124 582 124 c
662 124 730 158 787 225 c
844 293 873 398 873 540 c
873 675 845 777 789 844 c
734 911 667 945 590 945 c
513 945 445 909 386 837 c
327 766 298 662 298 525 c

ce} d
/r{682 0 133 0 710 1086 sc
133 0 m
133 1062 l
295 1062 l
295 901 l
336 976 374 1026 409 1050 c
444 1074 483 1086 525 1086 c
586 1086 647 1067 710 1028 c
648 861 l
604 887 560 900 516 900 c
477 900 441 888 410 864 c
379 841 356 808 343 766 c
323 702 313 632 313 556 c
313 0 l
133 0 l

ce} d
/s{1024 0 63 -24 945 1086 sc
63 317 m
241 345 l
251 274 279 219 324 181 c
370 143 434 124 516 124 c
599 124 660 141 700 174 c
740 208 760 248 760 293 c
760 334 742 366 707 389 c
682 405 621 425 523 450 c
391 483 299 512 248 536 c
197 561 159 594 132 637 c
106 680 93 728 93 780 c
93 827 104 871 125 911 c
147 952 177 985 214 1012 c
242 1033 280 1050 328 1064 c
377 1079 429 1086 484 1086 c
567 1086 640 1074 703 1050 c
766 1026 813 993 843 952 c
873 911 894 857 905 788 c
729 764 l
721 819 698 861 659 892 c
621 923 567 938 497 938 c
414 938 355 924 320 897 c
285 870 267 838 267 801 c
267 778 274 757 289 738 c
304 719 327 703 358 690 c
376 683 429 668 517 644 c
644 610 733 582 783 560 c
834 539 873 507 902 466 c
931 425 945 373 945 312 c
945 252 927 195 892 142 c
857 89 807 48 741 19 c
675 -10 600 -24 517 -24 c
379 -24 274 5 201 62 c
129 119 83 204 63 317 c

ce} d
/t{569 0 36 -14 554 1433 sc
528 161 m
554 2 l
503 -9 458 -14 418 -14 c
353 -14 302 -4 266 17 c
230 38 205 65 190 98 c
175 132 168 203 168 311 c
168 922 l
36 922 l
36 1062 l
168 1062 l
168 1325 l
347 1433 l
347 1062 l
528 1062 l
528 922 l
347 922 l
347 301 l
347 250 350 217 356 202 c
363 187 373 176 387 167 c
402 158 422 154 449 154 c
469 154 495 156 528 161 c

ce} d
/u{1139 0 131 -24 992 1062 sc
831 0 m
831 156 l
748 36 636 -24 494 -24 c
431 -24 373 -12 318 12 c
264 36 224 66 197 102 c
171 139 153 183 142 236 c
135 271 131 327 131 404 c
131 1062 l
311 1062 l
311 473 l
311 379 315 316 322 283 c
333 236 357 198 394 171 c
431 144 476 131 530 131 c
584 131 635 145 682 172 c
729 200 763 238 782 285 c
802 333 812 402 812 493 c
812 1062 l
992 1062 l
992 0 l
831 0 l

ce} d
/v{1024 0 26 0 1000 1062 sc
430 0 m
26 1062 l
216 1062 l
444 426 l
469 357 491 286 512 212 c
528 268 550 335 579 414 c
815 1062 l
1000 1062 l
598 0 l
430 0 l

ce} d
/x{1024 0 15 0 1009 1062 sc
15 0 m
403 552 l
44 1062 l
269 1062 l
432 813 l
463 766 487 726 506 694 c
535 738 562 777 587 811 c
766 1062 l
981 1062 l
614 562 l
1009 0 l
788 0 l
570 330 l
512 419 l
233 0 l
15 0 l

ce} d
end readonly def

/BuildGlyph {
 exch begin
 CharStrings exch
 2 copy known not {pop /.notdef} if
 true 3 1 roll get exec
 end
} d

/BuildChar {
 1 index /Encoding get exch get
 1 index /BuildGlyph get exec
} d

FontName currentdict end definefont pop
end
%%EndProlog
mpldict begin
54 216 translate
504 360 0 0 clipbox
gsave
0 0 m
504 0 l
504 360 l
0 360 l
cl
1.000 setgray
fill
grestore
gsave
101.986875 63.59625 m
484.56 63.59625 l
484.56 340.56 l
101.986875 340.56 l
cl
1.000 setgray
fill
grestore
0.800 setlinewidth
1 setlinejoin
0 setlinecap
[] 0 setdash
0.000 setgray
gsave
/o {
gsave
newpath
translate
0.8 setlinewidth
1 setlinejoin

0 setlinecap

0 0 m
0 -3.5 l

gsave
0.000 setgray
fill
grestore
stroke
grestore
} bind def
196.664 63.5963 o
grestore
/ArialMT 18.000 selectfont
gsave

191.656250 43.705625 translate
0.000000 rotate
0.000000 0 m /five glyphshow
grestore
gsave
/o {
gsave
newpath
translate
0.8 setlinewidth
1 setlinejoin

0 setlinecap

0 0 m
0 -3.5 l

gsave
0.000 setgray
fill
grestore
stroke
grestore
} bind def
293.273 63.5963 o
grestore
gsave

283.257812 43.705625 translate
0.000000 rotate
0.000000 0 m /one glyphshow
10.010742 0 m /zero glyphshow
grestore
gsave
/o {
gsave
newpath
translate
0.8 setlinewidth
1 setlinejoin

0 setlinecap

0 0 m
0 -3.5 l

gsave
0.000 setgray
fill
grestore
stroke
grestore
} bind def
389.883 63.5963 o
grestore
gsave

379.867188 43.705625 translate
0.000000 rotate
0.000000 0 m /one glyphshow
10.010742 0 m /five glyphshow
grestore
gsave

179.195312 23.018125 translate
0.000000 rotate
0.000000 0 m /N glyphshow
12.999023 0 m /u glyphshow
23.009766 0 m /m glyphshow
38.003906 0 m /b glyphshow
48.014648 0 m /e glyphshow
58.025391 0 m /r glyphshow
64.019531 0 m /space glyphshow
69.020508 0 m /o glyphshow
79.031250 0 m /f glyphshow
84.032227 0 m /space glyphshow
89.033203 0 m /P glyphshow
101.039062 0 m /C glyphshow
114.038086 0 m /A glyphshow
125.043945 0 m /space glyphshow
130.044922 0 m /c glyphshow
139.044922 0 m /o glyphshow
149.055664 0 m /m glyphshow
164.049805 0 m /p glyphshow
174.060547 0 m /o glyphshow
184.071289 0 m /n glyphshow
194.082031 0 m /e glyphshow
204.092773 0 m /n glyphshow
214.103516 0 m /t glyphshow
219.104492 0 m /s glyphshow
grestore
gsave
/o {
gsave
newpath
translate
0.8 setlinewidth
1 setlinejoin

0 setlinecap

-0 0 m
-3.5 0 l

gsave
0.000 setgray
fill
grestore
stroke
grestore
} bind def
101.987 87.423 o
grestore
gsave

39.908750 80.977723 translate
0.000000 rotate
0.000000 0 m /zero glyphshow
10.010742 0 m /period glyphshow
15.011719 0 m /nine glyphshow
25.022461 0 m /eight glyphshow
35.033203 0 m /seven glyphshow
45.043945 0 m /five glyphshow
grestore
gsave
/o {
gsave
newpath
translate
0.8 setlinewidth
1 setlinejoin

0 setlinecap

-0 0 m
-3.5 0 l

gsave
0.000 setgray
fill
grestore
stroke
grestore
} bind def
101.987 135.533 o
grestore
gsave

39.908750 129.087264 translate
0.000000 rotate
0.000000 0 m /zero glyphshow
10.010742 0 m /period glyphshow
15.011719 0 m /nine glyphshow
25.022461 0 m /nine glyphshow
35.033203 0 m /zero glyphshow
45.043945 0 m /zero glyphshow
grestore
gsave
/o {
gsave
newpath
translate
0.8 setlinewidth
1 setlinejoin

0 setlinecap

-0 0 m
-3.5 0 l

gsave
0.000 setgray
fill
grestore
stroke
grestore
} bind def
101.987 183.642 o
grestore
gsave

39.908750 177.196805 translate
0.000000 rotate
0.000000 0 m /zero glyphshow
10.010742 0 m /period glyphshow
15.011719 0 m /nine glyphshow
25.022461 0 m /nine glyphshow
35.033203 0 m /two glyphshow
45.043945 0 m /five glyphshow
grestore
gsave
/o {
gsave
newpath
translate
0.8 setlinewidth
1 setlinejoin

0 setlinecap

-0 0 m
-3.5 0 l

gsave
0.000 setgray
fill
grestore
stroke
grestore
} bind def
101.987 231.752 o
grestore
gsave

39.908750 225.306345 translate
0.000000 rotate
0.000000 0 m /zero glyphshow
10.010742 0 m /period glyphshow
15.011719 0 m /nine glyphshow
25.022461 0 m /nine glyphshow
35.033203 0 m /five glyphshow
45.043945 0 m /zero glyphshow
grestore
gsave
/o {
gsave
newpath
translate
0.8 setlinewidth
1 setlinejoin

0 setlinecap

-0 0 m
-3.5 0 l

gsave
0.000 setgray
fill
grestore
stroke
grestore
} bind def
101.987 279.861 o
grestore
gsave

39.908750 273.415886 translate
0.000000 rotate
0.000000 0 m /zero glyphshow
10.010742 0 m /period glyphshow
15.011719 0 m /nine glyphshow
25.022461 0 m /nine glyphshow
35.033203 0 m /seven glyphshow
45.043945 0 m /five glyphshow
grestore
gsave
/o {
gsave
newpath
translate
0.8 setlinewidth
1 setlinejoin

0 setlinecap

-0 0 m
-3.5 0 l

gsave
0.000 setgray
fill
grestore
stroke
grestore
} bind def
101.987 327.971 o
grestore
gsave

39.908750 321.525426 translate
0.000000 rotate
0.000000 0 m /one glyphshow
10.010742 0 m /period glyphshow
15.011719 0 m /zero glyphshow
25.022461 0 m /zero glyphshow
35.033203 0 m /zero glyphshow
45.043945 0 m /zero glyphshow
grestore
gsave

32.330625 126.007812 translate
90.000000 rotate
0.000000 0 m /E glyphshow
12.005859 0 m /x glyphshow
21.005859 0 m /p glyphshow
31.016602 0 m /l glyphshow
35.015625 0 m /a glyphshow
45.026367 0 m /i glyphshow
49.025391 0 m /n glyphshow
59.036133 0 m /e glyphshow
69.046875 0 m /d glyphshow
79.057617 0 m /space glyphshow
84.058594 0 m /v glyphshow
93.058594 0 m /a glyphshow
103.069336 0 m /r glyphshow
109.063477 0 m /i glyphshow
113.062500 0 m /a glyphshow
123.073242 0 m /n glyphshow
133.083984 0 m /c glyphshow
142.083984 0 m /e glyphshow
grestore
1.500 setlinewidth
2 setlinecap
0.122 0.467 0.706 setrgbcolor
gsave
382.573 276.964 101.987 63.596 clipbox
119.376563 76.185511 m
138.698438 232.537501 l
158.020313 297.52777 l
177.342188 316.436777 l
196.664062 327.708679 l
215.985938 327.968339 l
235.307813 327.970383 l
254.629687 327.970538 l
273.951563 327.970664 l
293.273438 327.970711 l
312.595312 327.970726 l
331.917188 327.970734 l
351.239062 327.970737 l
370.560937 327.970738 l
389.882812 327.970739 l
409.204687 327.970739 l
428.526562 327.970739 l
447.848437 327.970739 l
467.170312 327.970739 l
stroke
grestore
0.800 setlinewidth
0 setlinejoin
0.000 setgray
gsave
101.986875 63.59625 m
101.986875 340.56 l
stroke
grestore
gsave
484.56 63.59625 m
484.56 340.56 l
stroke
grestore
gsave
101.986875 63.59625 m
484.56 63.59625 l
stroke
grestore
gsave
101.986875 340.56 m
484.56 340.56 l
stroke
grestore

end
showpage
